\relax 
\providecommand\hyper@newdestlabel[2]{}
\providecommand\babel@aux[2]{}
\@nameuse{bbl@beforestart}
\catcode `"\active 
\catcode `-\active 
\providecommand\HyperFirstAtBeginDocument{\AtBeginDocument}
\HyperFirstAtBeginDocument{\ifx\hyper@anchor\@undefined
\global\let\oldcontentsline\contentsline
\gdef\contentsline#1#2#3#4{\oldcontentsline{#1}{#2}{#3}}
\global\let\oldnewlabel\newlabel
\gdef\newlabel#1#2{\newlabelxx{#1}#2}
\gdef\newlabelxx#1#2#3#4#5#6{\oldnewlabel{#1}{{#2}{#3}}}
\AtEndDocument{\ifx\hyper@anchor\@undefined
\let\contentsline\oldcontentsline
\let\newlabel\oldnewlabel
\fi}
\fi}
\global\let\hyper@last\relax 
\gdef\HyperFirstAtBeginDocument#1{#1}
\providecommand\HyField@AuxAddToFields[1]{}
\providecommand\HyField@AuxAddToCoFields[2]{}
\babel@aux{czech}{}
\citation{jl2}
\citation{jl}
\@writefile{toc}{\contentsline {section}{\numberline {1}Úvod}{2}{section.1}\protected@file@percent }
\@writefile{toc}{\contentsline {section}{\numberline {2}Specifikace úkolu}{2}{section.2}\protected@file@percent }
\@writefile{toc}{\contentsline {section}{\numberline {3}Data}{2}{section.3}\protected@file@percent }
\@writefile{lot}{\contentsline {table}{\numberline {1}{\ignorespaces Doba trvání předchozích semestrů, za které byly získány data}}{2}{table.1}\protected@file@percent }
\@writefile{lof}{\contentsline {figure}{\numberline {1}{\ignorespaces Část souboru Stat-TM-2022.csv, která obsahuje údaje za letní semestr 2022}}{3}{figure.1}\protected@file@percent }
\newlabel{fig:att}{{1}{3}{Část souboru Stat-TM-2022.csv, která obsahuje údaje za letní semestr 2022}{figure.1}{}}
\@writefile{toc}{\contentsline {section}{\numberline {4}Optimální doba oběda}{3}{section.4}\protected@file@percent }
\@writefile{toc}{\contentsline {section}{\numberline {5}Pracovní náplň jednotlivých pokladen}{3}{section.5}\protected@file@percent }
\@writefile{lof}{\contentsline {figure}{\numberline {2}{\ignorespaces Rozdělení zátěže pokladen v procentech za 15 minutové intervaly}}{3}{figure.2}\protected@file@percent }
\newlabel{fig:6}{{2}{3}{Rozdělení zátěže pokladen v procentech za 15 minutové intervaly}{figure.2}{}}
\@writefile{lof}{\contentsline {figure}{\numberline {3}{\ignorespaces Průměrný počet návštěvníků u každé pokladny za jednotku času}}{4}{figure.3}\protected@file@percent }
\newlabel{fig:3}{{3}{4}{Průměrný počet návštěvníků u každé pokladny za jednotku času}{figure.3}{}}
\@writefile{toc}{\contentsline {section}{\numberline {6}Vytížení jídelny během semestru}{4}{section.6}\protected@file@percent }
\@writefile{toc}{\contentsline {subsection}{\numberline {6.1}Vývoj návštěvnosti během dne}{4}{subsection.6.1}\protected@file@percent }
\@writefile{lof}{\contentsline {figure}{\numberline {4}{\ignorespaces Vývoj procenta návštěvníků z celkové hodnoty v čase}}{5}{figure.4}\protected@file@percent }
\newlabel{fig:4}{{4}{5}{Vývoj procenta návštěvníků z celkové hodnoty v čase}{figure.4}{}}
\@writefile{toc}{\contentsline {subsection}{\numberline {6.2}Definice přetížení menzy}{5}{subsection.6.2}\protected@file@percent }
\@writefile{toc}{\contentsline {subsection}{\numberline {6.3}Vývoj zátěže menzy v průběhu semestru}{6}{subsection.6.3}\protected@file@percent }
\@writefile{lof}{\contentsline {figure}{\numberline {5}{\ignorespaces Vývoj procenta nadměrné zátěže jídelny v průběhu semestru}}{6}{figure.5}\protected@file@percent }
\newlabel{fig:a}{{5}{6}{Vývoj procenta nadměrné zátěže jídelny v průběhu semestru}{figure.5}{}}
\@writefile{lot}{\contentsline {table}{\numberline {2}{\ignorespaces Procento přetížených dnů v semestru a jejich průměrné přetížení}}{6}{table.2}\protected@file@percent }
\bibstyle{plain}
\bibdata{references}
\bibcite{jl2}{1}
\bibcite{jl}{2}
\@writefile{lot}{\contentsline {table}{\numberline {3}{\ignorespaces Průměrné hodnoty zatížení jídelny za vybrané semestry}}{7}{table.3}\protected@file@percent }
\@writefile{toc}{\contentsline {section}{\numberline {7}Etická strána výzkumu}{7}{section.7}\protected@file@percent }
\@writefile{toc}{\contentsline {section}{\numberline {8}Závěr}{7}{section.8}\protected@file@percent }
\@writefile{toc}{\contentsline {section}{\numberline {9}Poděkování}{7}{section.9}\protected@file@percent }
\gdef \@abspage@last{7}
