PWD /Users/opst3/Learning/University/LS-2022/VEM/ni-vem/doc
INPUT /usr/local/texlive/2022/texmf.cnf
INPUT /usr/local/texlive/2022/texmf-dist/web2c/texmf.cnf
INPUT /usr/local/texlive/2022/texmf-var/web2c/pdftex/pdflatex.fmt
INPUT /Users/opst3/Learning/University/LS-2022/VEM/ni-vem/doc/report.tex
OUTPUT report.log
INPUT /usr/local/texlive/2022/texmf-dist/tex/latex/base/article.cls
INPUT /usr/local/texlive/2022/texmf-dist/tex/latex/base/article.cls
INPUT /usr/local/texlive/2022/texmf-dist/tex/latex/base/article.cls
INPUT /usr/local/texlive/2022/texmf-dist/tex/latex/base/article.cls
INPUT /usr/local/texlive/2022/texmf-dist/tex/latex/base/article.cls
INPUT /usr/local/texlive/2022/texmf-dist/tex/latex/base/article.cls
INPUT /usr/local/texlive/2022/texmf-dist/tex/latex/base/article.cls
INPUT /usr/local/texlive/2022/texmf-dist/tex/latex/base/article.cls
INPUT /usr/local/texlive/2022/texmf-dist/tex/latex/base/article.cls
INPUT /usr/local/texlive/2022/texmf-dist/tex/latex/base/article.cls
INPUT /usr/local/texlive/2022/texmf-dist/tex/latex/base/article.cls
INPUT /usr/local/texlive/2022/texmf-dist/tex/latex/base/size11.clo
INPUT /usr/local/texlive/2022/texmf-dist/tex/latex/base/size11.clo
INPUT /usr/local/texlive/2022/texmf-dist/tex/latex/base/size11.clo
INPUT /usr/local/texlive/2022/texmf-dist/tex/latex/base/size11.clo
INPUT /usr/local/texlive/2022/texmf-dist/fonts/map/fontname/texfonts.map
INPUT /usr/local/texlive/2022/texmf-dist/fonts/tfm/public/cm/cmr10.tfm
INPUT /usr/local/texlive/2022/texmf-dist/tex/latex/base/inputenc.sty
INPUT /usr/local/texlive/2022/texmf-dist/tex/latex/base/inputenc.sty
INPUT /usr/local/texlive/2022/texmf-dist/tex/latex/base/inputenc.sty
INPUT /usr/local/texlive/2022/texmf-dist/tex/latex/base/inputenc.sty
INPUT /usr/local/texlive/2022/texmf-dist/tex/latex/base/inputenc.sty
INPUT /usr/local/texlive/2022/texmf-dist/tex/latex/base/inputenc.sty
INPUT /usr/local/texlive/2022/texmf-dist/tex/latex/base/inputenc.sty
INPUT /usr/local/texlive/2022/texmf-dist/tex/latex/base/inputenc.sty
INPUT /usr/local/texlive/2022/texmf-dist/tex/latex/base/inputenc.sty
INPUT /usr/local/texlive/2022/texmf-dist/tex/latex/base/inputenc.sty
INPUT /usr/local/texlive/2022/texmf-dist/tex/latex/base/inputenc.sty
INPUT /usr/local/texlive/2022/texmf-dist/tex/generic/babel/babel.sty
INPUT /usr/local/texlive/2022/texmf-dist/tex/generic/babel/babel.sty
INPUT /usr/local/texlive/2022/texmf-dist/tex/generic/babel/babel.sty
INPUT /usr/local/texlive/2022/texmf-dist/tex/generic/babel/babel.sty
INPUT /usr/local/texlive/2022/texmf-dist/tex/generic/babel/babel.sty
INPUT /usr/local/texlive/2022/texmf-dist/tex/generic/babel/babel.sty
INPUT /usr/local/texlive/2022/texmf-dist/tex/generic/babel/babel.sty
INPUT /usr/local/texlive/2022/texmf-dist/tex/generic/babel/babel.sty
INPUT /usr/local/texlive/2022/texmf-dist/tex/generic/babel/babel.sty
INPUT /usr/local/texlive/2022/texmf-dist/tex/generic/babel/babel.sty
INPUT /usr/local/texlive/2022/texmf-dist/tex/generic/babel/babel.sty
INPUT /usr/local/texlive/2022/texmf-dist/tex/generic/babel/txtbabel.def
INPUT /usr/local/texlive/2022/texmf-dist/tex/generic/babel-czech/czech.ldf
INPUT /usr/local/texlive/2022/texmf-dist/tex/generic/babel-czech/czech.ldf
INPUT /usr/local/texlive/2022/texmf-dist/tex/generic/babel-czech/czech.ldf
INPUT /usr/local/texlive/2022/texmf-dist/tex/generic/babel-czech/czech.ldf
INPUT /usr/local/texlive/2022/texmf-dist/tex/latex/graphics/graphicx.sty
INPUT /usr/local/texlive/2022/texmf-dist/tex/latex/graphics/graphicx.sty
INPUT /usr/local/texlive/2022/texmf-dist/tex/latex/graphics/graphicx.sty
INPUT /usr/local/texlive/2022/texmf-dist/tex/latex/graphics/graphicx.sty
INPUT /usr/local/texlive/2022/texmf-dist/tex/latex/graphics/graphicx.sty
INPUT /usr/local/texlive/2022/texmf-dist/tex/latex/graphics/graphicx.sty
INPUT /usr/local/texlive/2022/texmf-dist/tex/latex/graphics/graphicx.sty
INPUT /usr/local/texlive/2022/texmf-dist/tex/latex/graphics/graphicx.sty
INPUT /usr/local/texlive/2022/texmf-dist/tex/latex/graphics/graphicx.sty
INPUT /usr/local/texlive/2022/texmf-dist/tex/latex/graphics/graphicx.sty
INPUT /usr/local/texlive/2022/texmf-dist/tex/latex/graphics/graphicx.sty
INPUT /usr/local/texlive/2022/texmf-dist/tex/latex/graphics/keyval.sty
INPUT /usr/local/texlive/2022/texmf-dist/tex/latex/graphics/keyval.sty
INPUT /usr/local/texlive/2022/texmf-dist/tex/latex/graphics/keyval.sty
INPUT /usr/local/texlive/2022/texmf-dist/tex/latex/graphics/keyval.sty
INPUT /usr/local/texlive/2022/texmf-dist/tex/latex/graphics/keyval.sty
INPUT /usr/local/texlive/2022/texmf-dist/tex/latex/graphics/keyval.sty
INPUT /usr/local/texlive/2022/texmf-dist/tex/latex/graphics/keyval.sty
INPUT /usr/local/texlive/2022/texmf-dist/tex/latex/graphics/keyval.sty
INPUT /usr/local/texlive/2022/texmf-dist/tex/latex/graphics/keyval.sty
INPUT /usr/local/texlive/2022/texmf-dist/tex/latex/graphics/keyval.sty
INPUT /usr/local/texlive/2022/texmf-dist/tex/latex/graphics/keyval.sty
INPUT /usr/local/texlive/2022/texmf-dist/tex/latex/graphics/graphics.sty
INPUT /usr/local/texlive/2022/texmf-dist/tex/latex/graphics/graphics.sty
INPUT /usr/local/texlive/2022/texmf-dist/tex/latex/graphics/graphics.sty
INPUT /usr/local/texlive/2022/texmf-dist/tex/latex/graphics/graphics.sty
INPUT /usr/local/texlive/2022/texmf-dist/tex/latex/graphics/graphics.sty
INPUT /usr/local/texlive/2022/texmf-dist/tex/latex/graphics/graphics.sty
INPUT /usr/local/texlive/2022/texmf-dist/tex/latex/graphics/graphics.sty
INPUT /usr/local/texlive/2022/texmf-dist/tex/latex/graphics/graphics.sty
INPUT /usr/local/texlive/2022/texmf-dist/tex/latex/graphics/graphics.sty
INPUT /usr/local/texlive/2022/texmf-dist/tex/latex/graphics/graphics.sty
INPUT /usr/local/texlive/2022/texmf-dist/tex/latex/graphics/graphics.sty
INPUT /usr/local/texlive/2022/texmf-dist/tex/latex/graphics/trig.sty
INPUT /usr/local/texlive/2022/texmf-dist/tex/latex/graphics/trig.sty
INPUT /usr/local/texlive/2022/texmf-dist/tex/latex/graphics/trig.sty
INPUT /usr/local/texlive/2022/texmf-dist/tex/latex/graphics/trig.sty
INPUT /usr/local/texlive/2022/texmf-dist/tex/latex/graphics/trig.sty
INPUT /usr/local/texlive/2022/texmf-dist/tex/latex/graphics/trig.sty
INPUT /usr/local/texlive/2022/texmf-dist/tex/latex/graphics/trig.sty
INPUT /usr/local/texlive/2022/texmf-dist/tex/latex/graphics/trig.sty
INPUT /usr/local/texlive/2022/texmf-dist/tex/latex/graphics/trig.sty
INPUT /usr/local/texlive/2022/texmf-dist/tex/latex/graphics/trig.sty
INPUT /usr/local/texlive/2022/texmf-dist/tex/latex/graphics/trig.sty
INPUT /usr/local/texlive/2022/texmf-dist/tex/latex/graphics-cfg/graphics.cfg
INPUT /usr/local/texlive/2022/texmf-dist/tex/latex/graphics-cfg/graphics.cfg
INPUT /usr/local/texlive/2022/texmf-dist/tex/latex/graphics-cfg/graphics.cfg
INPUT /usr/local/texlive/2022/texmf-dist/tex/latex/graphics-cfg/graphics.cfg
INPUT /usr/local/texlive/2022/texmf-dist/tex/latex/graphics-def/pdftex.def
INPUT /usr/local/texlive/2022/texmf-dist/tex/latex/graphics-def/pdftex.def
INPUT /usr/local/texlive/2022/texmf-dist/tex/latex/graphics-def/pdftex.def
INPUT /usr/local/texlive/2022/texmf-dist/tex/latex/graphics-def/pdftex.def
INPUT /usr/local/texlive/2022/texmf-dist/tex/latex/amsmath/amsmath.sty
INPUT /usr/local/texlive/2022/texmf-dist/tex/latex/amsmath/amsmath.sty
INPUT /usr/local/texlive/2022/texmf-dist/tex/latex/amsmath/amsmath.sty
INPUT /usr/local/texlive/2022/texmf-dist/tex/latex/amsmath/amsmath.sty
INPUT /usr/local/texlive/2022/texmf-dist/tex/latex/amsmath/amsmath.sty
INPUT /usr/local/texlive/2022/texmf-dist/tex/latex/amsmath/amsmath.sty
INPUT /usr/local/texlive/2022/texmf-dist/tex/latex/amsmath/amsmath.sty
INPUT /usr/local/texlive/2022/texmf-dist/tex/latex/amsmath/amsmath.sty
INPUT /usr/local/texlive/2022/texmf-dist/tex/latex/amsmath/amsmath.sty
INPUT /usr/local/texlive/2022/texmf-dist/tex/latex/amsmath/amsmath.sty
INPUT /usr/local/texlive/2022/texmf-dist/tex/latex/amsmath/amsmath.sty
INPUT /usr/local/texlive/2022/texmf-dist/tex/latex/amsmath/amsopn.sty
INPUT /usr/local/texlive/2022/texmf-dist/tex/latex/amsmath/amsopn.sty
INPUT /usr/local/texlive/2022/texmf-dist/tex/latex/amsmath/amstext.sty
INPUT /usr/local/texlive/2022/texmf-dist/tex/latex/amsmath/amstext.sty
INPUT /usr/local/texlive/2022/texmf-dist/tex/latex/amsmath/amstext.sty
INPUT /usr/local/texlive/2022/texmf-dist/tex/latex/amsmath/amstext.sty
INPUT /usr/local/texlive/2022/texmf-dist/tex/latex/amsmath/amstext.sty
INPUT /usr/local/texlive/2022/texmf-dist/tex/latex/amsmath/amstext.sty
INPUT /usr/local/texlive/2022/texmf-dist/tex/latex/amsmath/amstext.sty
INPUT /usr/local/texlive/2022/texmf-dist/tex/latex/amsmath/amstext.sty
INPUT /usr/local/texlive/2022/texmf-dist/tex/latex/amsmath/amstext.sty
INPUT /usr/local/texlive/2022/texmf-dist/tex/latex/amsmath/amstext.sty
INPUT /usr/local/texlive/2022/texmf-dist/tex/latex/amsmath/amstext.sty
INPUT /usr/local/texlive/2022/texmf-dist/tex/latex/amsmath/amsgen.sty
INPUT /usr/local/texlive/2022/texmf-dist/tex/latex/amsmath/amsgen.sty
INPUT /usr/local/texlive/2022/texmf-dist/tex/latex/amsmath/amsgen.sty
INPUT /usr/local/texlive/2022/texmf-dist/tex/latex/amsmath/amsgen.sty
INPUT /usr/local/texlive/2022/texmf-dist/tex/latex/amsmath/amsgen.sty
INPUT /usr/local/texlive/2022/texmf-dist/tex/latex/amsmath/amsgen.sty
INPUT /usr/local/texlive/2022/texmf-dist/tex/latex/amsmath/amsgen.sty
INPUT /usr/local/texlive/2022/texmf-dist/tex/latex/amsmath/amsgen.sty
INPUT /usr/local/texlive/2022/texmf-dist/tex/latex/amsmath/amsgen.sty
INPUT /usr/local/texlive/2022/texmf-dist/tex/latex/amsmath/amsgen.sty
INPUT /usr/local/texlive/2022/texmf-dist/tex/latex/amsmath/amsgen.sty
INPUT /usr/local/texlive/2022/texmf-dist/tex/latex/amsmath/amsbsy.sty
INPUT /usr/local/texlive/2022/texmf-dist/tex/latex/amsmath/amsbsy.sty
INPUT /usr/local/texlive/2022/texmf-dist/tex/latex/amsmath/amsbsy.sty
INPUT /usr/local/texlive/2022/texmf-dist/tex/latex/amsmath/amsbsy.sty
INPUT /usr/local/texlive/2022/texmf-dist/tex/latex/amsmath/amsbsy.sty
INPUT /usr/local/texlive/2022/texmf-dist/tex/latex/amsmath/amsbsy.sty
INPUT /usr/local/texlive/2022/texmf-dist/tex/latex/amsmath/amsbsy.sty
INPUT /usr/local/texlive/2022/texmf-dist/tex/latex/amsmath/amsbsy.sty
INPUT /usr/local/texlive/2022/texmf-dist/tex/latex/amsmath/amsbsy.sty
INPUT /usr/local/texlive/2022/texmf-dist/tex/latex/amsmath/amsbsy.sty
INPUT /usr/local/texlive/2022/texmf-dist/tex/latex/amsmath/amsbsy.sty
INPUT /usr/local/texlive/2022/texmf-dist/tex/latex/amsmath/amsgen.sty
INPUT /usr/local/texlive/2022/texmf-dist/tex/latex/amsmath/amsopn.sty
INPUT /usr/local/texlive/2022/texmf-dist/tex/latex/amsmath/amsopn.sty
INPUT /usr/local/texlive/2022/texmf-dist/tex/latex/amsmath/amsopn.sty
INPUT /usr/local/texlive/2022/texmf-dist/tex/latex/amsmath/amsopn.sty
INPUT /usr/local/texlive/2022/texmf-dist/tex/latex/amsmath/amsopn.sty
INPUT /usr/local/texlive/2022/texmf-dist/tex/latex/amsmath/amsopn.sty
INPUT /usr/local/texlive/2022/texmf-dist/tex/latex/amsmath/amsopn.sty
INPUT /usr/local/texlive/2022/texmf-dist/tex/latex/amsmath/amsopn.sty
INPUT /usr/local/texlive/2022/texmf-dist/tex/latex/amsmath/amsopn.sty
INPUT /usr/local/texlive/2022/texmf-dist/tex/latex/amsmath/amsopn.sty
INPUT /usr/local/texlive/2022/texmf-dist/tex/latex/amsmath/amsopn.sty
INPUT /usr/local/texlive/2022/texmf-dist/tex/latex/amsmath/amsgen.sty
INPUT /usr/local/texlive/2022/texmf-dist/tex/latex/amsfonts/amssymb.sty
INPUT /usr/local/texlive/2022/texmf-dist/tex/latex/amsfonts/amssymb.sty
INPUT /usr/local/texlive/2022/texmf-dist/tex/latex/amsfonts/amssymb.sty
INPUT /usr/local/texlive/2022/texmf-dist/tex/latex/amsfonts/amssymb.sty
INPUT /usr/local/texlive/2022/texmf-dist/tex/latex/amsfonts/amssymb.sty
INPUT /usr/local/texlive/2022/texmf-dist/tex/latex/amsfonts/amssymb.sty
INPUT /usr/local/texlive/2022/texmf-dist/tex/latex/amsfonts/amssymb.sty
INPUT /usr/local/texlive/2022/texmf-dist/tex/latex/amsfonts/amssymb.sty
INPUT /usr/local/texlive/2022/texmf-dist/tex/latex/amsfonts/amssymb.sty
INPUT /usr/local/texlive/2022/texmf-dist/tex/latex/amsfonts/amssymb.sty
INPUT /usr/local/texlive/2022/texmf-dist/tex/latex/amsfonts/amssymb.sty
INPUT /usr/local/texlive/2022/texmf-dist/tex/latex/amsfonts/amsfonts.sty
INPUT /usr/local/texlive/2022/texmf-dist/tex/latex/amsfonts/amsfonts.sty
INPUT /usr/local/texlive/2022/texmf-dist/tex/latex/amsfonts/amsfonts.sty
INPUT /usr/local/texlive/2022/texmf-dist/tex/latex/amsfonts/amsfonts.sty
INPUT /usr/local/texlive/2022/texmf-dist/tex/latex/amsfonts/amsfonts.sty
INPUT /usr/local/texlive/2022/texmf-dist/tex/latex/amsfonts/amsfonts.sty
INPUT /usr/local/texlive/2022/texmf-dist/tex/latex/amsfonts/amsfonts.sty
INPUT /usr/local/texlive/2022/texmf-dist/tex/latex/amsfonts/amsfonts.sty
INPUT /usr/local/texlive/2022/texmf-dist/tex/latex/amsfonts/amsfonts.sty
INPUT /usr/local/texlive/2022/texmf-dist/tex/latex/amsfonts/amsfonts.sty
INPUT /usr/local/texlive/2022/texmf-dist/tex/latex/amsfonts/amsfonts.sty
INPUT /usr/local/texlive/2022/texmf-dist/tex/latex/amsfonts/amsfonts.sty
INPUT /usr/local/texlive/2022/texmf-dist/tex/latex/listings/listings.sty
INPUT /usr/local/texlive/2022/texmf-dist/tex/latex/listings/listings.sty
INPUT /usr/local/texlive/2022/texmf-dist/tex/latex/listings/listings.sty
INPUT /usr/local/texlive/2022/texmf-dist/tex/latex/listings/listings.sty
INPUT /usr/local/texlive/2022/texmf-dist/tex/latex/listings/listings.sty
INPUT /usr/local/texlive/2022/texmf-dist/tex/latex/listings/listings.sty
INPUT /usr/local/texlive/2022/texmf-dist/tex/latex/listings/listings.sty
INPUT /usr/local/texlive/2022/texmf-dist/tex/latex/listings/listings.sty
INPUT /usr/local/texlive/2022/texmf-dist/tex/latex/listings/listings.sty
INPUT /usr/local/texlive/2022/texmf-dist/tex/latex/listings/listings.sty
INPUT /usr/local/texlive/2022/texmf-dist/tex/latex/listings/listings.sty
INPUT /usr/local/texlive/2022/texmf-dist/tex/latex/graphics/keyval.sty
INPUT /usr/local/texlive/2022/texmf-dist/tex/latex/listings/lstmisc.sty
INPUT /usr/local/texlive/2022/texmf-dist/tex/latex/listings/lstmisc.sty
INPUT /usr/local/texlive/2022/texmf-dist/tex/latex/listings/lstmisc.sty
INPUT /usr/local/texlive/2022/texmf-dist/tex/latex/listings/lstmisc.sty
INPUT /usr/local/texlive/2022/texmf-dist/tex/latex/listings/listings.cfg
INPUT /usr/local/texlive/2022/texmf-dist/tex/latex/listings/listings.cfg
INPUT /usr/local/texlive/2022/texmf-dist/tex/latex/listings/listings.cfg
INPUT /usr/local/texlive/2022/texmf-dist/tex/latex/listings/listings.cfg
INPUT /usr/local/texlive/2022/texmf-dist/tex/latex/hyperref/hyperref.sty
INPUT /usr/local/texlive/2022/texmf-dist/tex/latex/hyperref/hyperref.sty
INPUT /usr/local/texlive/2022/texmf-dist/tex/latex/hyperref/hyperref.sty
INPUT /usr/local/texlive/2022/texmf-dist/tex/latex/hyperref/hyperref.sty
INPUT /usr/local/texlive/2022/texmf-dist/tex/latex/hyperref/hyperref.sty
INPUT /usr/local/texlive/2022/texmf-dist/tex/latex/hyperref/hyperref.sty
INPUT /usr/local/texlive/2022/texmf-dist/tex/latex/hyperref/hyperref.sty
INPUT /usr/local/texlive/2022/texmf-dist/tex/latex/hyperref/hyperref.sty
INPUT /usr/local/texlive/2022/texmf-dist/tex/latex/hyperref/hyperref.sty
INPUT /usr/local/texlive/2022/texmf-dist/tex/latex/hyperref/hyperref.sty
INPUT /usr/local/texlive/2022/texmf-dist/tex/latex/hyperref/hyperref.sty
INPUT /usr/local/texlive/2022/texmf-dist/tex/generic/ltxcmds/ltxcmds.sty
INPUT /usr/local/texlive/2022/texmf-dist/tex/generic/ltxcmds/ltxcmds.sty
INPUT /usr/local/texlive/2022/texmf-dist/tex/generic/ltxcmds/ltxcmds.sty
INPUT /usr/local/texlive/2022/texmf-dist/tex/generic/ltxcmds/ltxcmds.sty
INPUT /usr/local/texlive/2022/texmf-dist/tex/generic/ltxcmds/ltxcmds.sty
INPUT /usr/local/texlive/2022/texmf-dist/tex/generic/ltxcmds/ltxcmds.sty
INPUT /usr/local/texlive/2022/texmf-dist/tex/generic/ltxcmds/ltxcmds.sty
INPUT /usr/local/texlive/2022/texmf-dist/tex/generic/ltxcmds/ltxcmds.sty
INPUT /usr/local/texlive/2022/texmf-dist/tex/generic/ltxcmds/ltxcmds.sty
INPUT /usr/local/texlive/2022/texmf-dist/tex/generic/ltxcmds/ltxcmds.sty
INPUT /usr/local/texlive/2022/texmf-dist/tex/generic/ltxcmds/ltxcmds.sty
INPUT /usr/local/texlive/2022/texmf-dist/tex/generic/iftex/iftex.sty
INPUT /usr/local/texlive/2022/texmf-dist/tex/generic/iftex/iftex.sty
INPUT /usr/local/texlive/2022/texmf-dist/tex/generic/iftex/iftex.sty
INPUT /usr/local/texlive/2022/texmf-dist/tex/generic/iftex/iftex.sty
INPUT /usr/local/texlive/2022/texmf-dist/tex/generic/iftex/iftex.sty
INPUT /usr/local/texlive/2022/texmf-dist/tex/generic/iftex/iftex.sty
INPUT /usr/local/texlive/2022/texmf-dist/tex/generic/iftex/iftex.sty
INPUT /usr/local/texlive/2022/texmf-dist/tex/generic/iftex/iftex.sty
INPUT /usr/local/texlive/2022/texmf-dist/tex/generic/iftex/iftex.sty
INPUT /usr/local/texlive/2022/texmf-dist/tex/generic/iftex/iftex.sty
INPUT /usr/local/texlive/2022/texmf-dist/tex/generic/iftex/iftex.sty
INPUT /usr/local/texlive/2022/texmf-dist/tex/generic/pdftexcmds/pdftexcmds.sty
INPUT /usr/local/texlive/2022/texmf-dist/tex/generic/pdftexcmds/pdftexcmds.sty
INPUT /usr/local/texlive/2022/texmf-dist/tex/generic/pdftexcmds/pdftexcmds.sty
INPUT /usr/local/texlive/2022/texmf-dist/tex/generic/pdftexcmds/pdftexcmds.sty
INPUT /usr/local/texlive/2022/texmf-dist/tex/generic/pdftexcmds/pdftexcmds.sty
INPUT /usr/local/texlive/2022/texmf-dist/tex/generic/pdftexcmds/pdftexcmds.sty
INPUT /usr/local/texlive/2022/texmf-dist/tex/generic/pdftexcmds/pdftexcmds.sty
INPUT /usr/local/texlive/2022/texmf-dist/tex/generic/pdftexcmds/pdftexcmds.sty
INPUT /usr/local/texlive/2022/texmf-dist/tex/generic/pdftexcmds/pdftexcmds.sty
INPUT /usr/local/texlive/2022/texmf-dist/tex/generic/pdftexcmds/pdftexcmds.sty
INPUT /usr/local/texlive/2022/texmf-dist/tex/generic/pdftexcmds/pdftexcmds.sty
INPUT /usr/local/texlive/2022/texmf-dist/tex/generic/infwarerr/infwarerr.sty
INPUT /usr/local/texlive/2022/texmf-dist/tex/generic/infwarerr/infwarerr.sty
INPUT /usr/local/texlive/2022/texmf-dist/tex/generic/infwarerr/infwarerr.sty
INPUT /usr/local/texlive/2022/texmf-dist/tex/generic/infwarerr/infwarerr.sty
INPUT /usr/local/texlive/2022/texmf-dist/tex/generic/infwarerr/infwarerr.sty
INPUT /usr/local/texlive/2022/texmf-dist/tex/generic/infwarerr/infwarerr.sty
INPUT /usr/local/texlive/2022/texmf-dist/tex/generic/infwarerr/infwarerr.sty
INPUT /usr/local/texlive/2022/texmf-dist/tex/generic/infwarerr/infwarerr.sty
INPUT /usr/local/texlive/2022/texmf-dist/tex/generic/infwarerr/infwarerr.sty
INPUT /usr/local/texlive/2022/texmf-dist/tex/generic/infwarerr/infwarerr.sty
INPUT /usr/local/texlive/2022/texmf-dist/tex/generic/infwarerr/infwarerr.sty
INPUT /usr/local/texlive/2022/texmf-dist/tex/generic/iftex/iftex.sty
INPUT /usr/local/texlive/2022/texmf-dist/tex/generic/ltxcmds/ltxcmds.sty
INPUT /usr/local/texlive/2022/texmf-dist/tex/generic/infwarerr/infwarerr.sty
INPUT /usr/local/texlive/2022/texmf-dist/tex/latex/graphics/keyval.sty
INPUT /usr/local/texlive/2022/texmf-dist/tex/generic/kvsetkeys/kvsetkeys.sty
INPUT /usr/local/texlive/2022/texmf-dist/tex/generic/kvsetkeys/kvsetkeys.sty
INPUT /usr/local/texlive/2022/texmf-dist/tex/generic/kvsetkeys/kvsetkeys.sty
INPUT /usr/local/texlive/2022/texmf-dist/tex/generic/kvsetkeys/kvsetkeys.sty
INPUT /usr/local/texlive/2022/texmf-dist/tex/generic/kvsetkeys/kvsetkeys.sty
INPUT /usr/local/texlive/2022/texmf-dist/tex/generic/kvsetkeys/kvsetkeys.sty
INPUT /usr/local/texlive/2022/texmf-dist/tex/generic/kvsetkeys/kvsetkeys.sty
INPUT /usr/local/texlive/2022/texmf-dist/tex/generic/kvsetkeys/kvsetkeys.sty
INPUT /usr/local/texlive/2022/texmf-dist/tex/generic/kvsetkeys/kvsetkeys.sty
INPUT /usr/local/texlive/2022/texmf-dist/tex/generic/kvsetkeys/kvsetkeys.sty
INPUT /usr/local/texlive/2022/texmf-dist/tex/generic/kvsetkeys/kvsetkeys.sty
INPUT /usr/local/texlive/2022/texmf-dist/tex/generic/kvdefinekeys/kvdefinekeys.sty
INPUT /usr/local/texlive/2022/texmf-dist/tex/generic/kvdefinekeys/kvdefinekeys.sty
INPUT /usr/local/texlive/2022/texmf-dist/tex/generic/kvdefinekeys/kvdefinekeys.sty
INPUT /usr/local/texlive/2022/texmf-dist/tex/generic/kvdefinekeys/kvdefinekeys.sty
INPUT /usr/local/texlive/2022/texmf-dist/tex/generic/kvdefinekeys/kvdefinekeys.sty
INPUT /usr/local/texlive/2022/texmf-dist/tex/generic/kvdefinekeys/kvdefinekeys.sty
INPUT /usr/local/texlive/2022/texmf-dist/tex/generic/kvdefinekeys/kvdefinekeys.sty
INPUT /usr/local/texlive/2022/texmf-dist/tex/generic/kvdefinekeys/kvdefinekeys.sty
INPUT /usr/local/texlive/2022/texmf-dist/tex/generic/kvdefinekeys/kvdefinekeys.sty
INPUT /usr/local/texlive/2022/texmf-dist/tex/generic/kvdefinekeys/kvdefinekeys.sty
INPUT /usr/local/texlive/2022/texmf-dist/tex/generic/kvdefinekeys/kvdefinekeys.sty
INPUT /usr/local/texlive/2022/texmf-dist/tex/generic/pdfescape/pdfescape.sty
INPUT /usr/local/texlive/2022/texmf-dist/tex/generic/pdfescape/pdfescape.sty
INPUT /usr/local/texlive/2022/texmf-dist/tex/generic/pdfescape/pdfescape.sty
INPUT /usr/local/texlive/2022/texmf-dist/tex/generic/pdfescape/pdfescape.sty
INPUT /usr/local/texlive/2022/texmf-dist/tex/generic/pdfescape/pdfescape.sty
INPUT /usr/local/texlive/2022/texmf-dist/tex/generic/pdfescape/pdfescape.sty
INPUT /usr/local/texlive/2022/texmf-dist/tex/generic/pdfescape/pdfescape.sty
INPUT /usr/local/texlive/2022/texmf-dist/tex/generic/pdfescape/pdfescape.sty
INPUT /usr/local/texlive/2022/texmf-dist/tex/generic/pdfescape/pdfescape.sty
INPUT /usr/local/texlive/2022/texmf-dist/tex/generic/pdfescape/pdfescape.sty
INPUT /usr/local/texlive/2022/texmf-dist/tex/generic/pdfescape/pdfescape.sty
INPUT /usr/local/texlive/2022/texmf-dist/tex/generic/ltxcmds/ltxcmds.sty
INPUT /usr/local/texlive/2022/texmf-dist/tex/generic/pdftexcmds/pdftexcmds.sty
INPUT /usr/local/texlive/2022/texmf-dist/tex/latex/hycolor/hycolor.sty
INPUT /usr/local/texlive/2022/texmf-dist/tex/latex/hycolor/hycolor.sty
INPUT /usr/local/texlive/2022/texmf-dist/tex/latex/hycolor/hycolor.sty
INPUT /usr/local/texlive/2022/texmf-dist/tex/latex/hycolor/hycolor.sty
INPUT /usr/local/texlive/2022/texmf-dist/tex/latex/hycolor/hycolor.sty
INPUT /usr/local/texlive/2022/texmf-dist/tex/latex/hycolor/hycolor.sty
INPUT /usr/local/texlive/2022/texmf-dist/tex/latex/hycolor/hycolor.sty
INPUT /usr/local/texlive/2022/texmf-dist/tex/latex/hycolor/hycolor.sty
INPUT /usr/local/texlive/2022/texmf-dist/tex/latex/hycolor/hycolor.sty
INPUT /usr/local/texlive/2022/texmf-dist/tex/latex/hycolor/hycolor.sty
INPUT /usr/local/texlive/2022/texmf-dist/tex/latex/hycolor/hycolor.sty
INPUT /usr/local/texlive/2022/texmf-dist/tex/latex/letltxmacro/letltxmacro.sty
INPUT /usr/local/texlive/2022/texmf-dist/tex/latex/letltxmacro/letltxmacro.sty
INPUT /usr/local/texlive/2022/texmf-dist/tex/latex/letltxmacro/letltxmacro.sty
INPUT /usr/local/texlive/2022/texmf-dist/tex/latex/letltxmacro/letltxmacro.sty
INPUT /usr/local/texlive/2022/texmf-dist/tex/latex/letltxmacro/letltxmacro.sty
INPUT /usr/local/texlive/2022/texmf-dist/tex/latex/letltxmacro/letltxmacro.sty
INPUT /usr/local/texlive/2022/texmf-dist/tex/latex/letltxmacro/letltxmacro.sty
INPUT /usr/local/texlive/2022/texmf-dist/tex/latex/letltxmacro/letltxmacro.sty
INPUT /usr/local/texlive/2022/texmf-dist/tex/latex/letltxmacro/letltxmacro.sty
INPUT /usr/local/texlive/2022/texmf-dist/tex/latex/letltxmacro/letltxmacro.sty
INPUT /usr/local/texlive/2022/texmf-dist/tex/latex/letltxmacro/letltxmacro.sty
INPUT /usr/local/texlive/2022/texmf-dist/tex/latex/auxhook/auxhook.sty
INPUT /usr/local/texlive/2022/texmf-dist/tex/latex/auxhook/auxhook.sty
INPUT /usr/local/texlive/2022/texmf-dist/tex/latex/auxhook/auxhook.sty
INPUT /usr/local/texlive/2022/texmf-dist/tex/latex/auxhook/auxhook.sty
INPUT /usr/local/texlive/2022/texmf-dist/tex/latex/auxhook/auxhook.sty
INPUT /usr/local/texlive/2022/texmf-dist/tex/latex/auxhook/auxhook.sty
INPUT /usr/local/texlive/2022/texmf-dist/tex/latex/auxhook/auxhook.sty
INPUT /usr/local/texlive/2022/texmf-dist/tex/latex/auxhook/auxhook.sty
INPUT /usr/local/texlive/2022/texmf-dist/tex/latex/auxhook/auxhook.sty
INPUT /usr/local/texlive/2022/texmf-dist/tex/latex/auxhook/auxhook.sty
INPUT /usr/local/texlive/2022/texmf-dist/tex/latex/auxhook/auxhook.sty
INPUT /usr/local/texlive/2022/texmf-dist/tex/latex/kvoptions/kvoptions.sty
INPUT /usr/local/texlive/2022/texmf-dist/tex/latex/kvoptions/kvoptions.sty
INPUT /usr/local/texlive/2022/texmf-dist/tex/latex/kvoptions/kvoptions.sty
INPUT /usr/local/texlive/2022/texmf-dist/tex/latex/kvoptions/kvoptions.sty
INPUT /usr/local/texlive/2022/texmf-dist/tex/latex/kvoptions/kvoptions.sty
INPUT /usr/local/texlive/2022/texmf-dist/tex/latex/kvoptions/kvoptions.sty
INPUT /usr/local/texlive/2022/texmf-dist/tex/latex/kvoptions/kvoptions.sty
INPUT /usr/local/texlive/2022/texmf-dist/tex/latex/kvoptions/kvoptions.sty
INPUT /usr/local/texlive/2022/texmf-dist/tex/latex/kvoptions/kvoptions.sty
INPUT /usr/local/texlive/2022/texmf-dist/tex/latex/kvoptions/kvoptions.sty
INPUT /usr/local/texlive/2022/texmf-dist/tex/latex/kvoptions/kvoptions.sty
INPUT /usr/local/texlive/2022/texmf-dist/tex/generic/ltxcmds/ltxcmds.sty
INPUT /usr/local/texlive/2022/texmf-dist/tex/generic/kvsetkeys/kvsetkeys.sty
INPUT /usr/local/texlive/2022/texmf-dist/tex/latex/hyperref/pd1enc.def
INPUT /usr/local/texlive/2022/texmf-dist/tex/latex/hyperref/pd1enc.def
INPUT /usr/local/texlive/2022/texmf-dist/tex/latex/hyperref/pd1enc.def
INPUT /usr/local/texlive/2022/texmf-dist/tex/latex/hyperref/pd1enc.def
INPUT /usr/local/texlive/2022/texmf-dist/tex/generic/intcalc/intcalc.sty
INPUT /usr/local/texlive/2022/texmf-dist/tex/generic/intcalc/intcalc.sty
INPUT /usr/local/texlive/2022/texmf-dist/tex/generic/intcalc/intcalc.sty
INPUT /usr/local/texlive/2022/texmf-dist/tex/generic/intcalc/intcalc.sty
INPUT /usr/local/texlive/2022/texmf-dist/tex/generic/intcalc/intcalc.sty
INPUT /usr/local/texlive/2022/texmf-dist/tex/generic/intcalc/intcalc.sty
INPUT /usr/local/texlive/2022/texmf-dist/tex/generic/intcalc/intcalc.sty
INPUT /usr/local/texlive/2022/texmf-dist/tex/generic/intcalc/intcalc.sty
INPUT /usr/local/texlive/2022/texmf-dist/tex/generic/intcalc/intcalc.sty
INPUT /usr/local/texlive/2022/texmf-dist/tex/generic/intcalc/intcalc.sty
INPUT /usr/local/texlive/2022/texmf-dist/tex/generic/intcalc/intcalc.sty
INPUT /usr/local/texlive/2022/texmf-dist/tex/generic/etexcmds/etexcmds.sty
INPUT /usr/local/texlive/2022/texmf-dist/tex/generic/etexcmds/etexcmds.sty
INPUT /usr/local/texlive/2022/texmf-dist/tex/generic/etexcmds/etexcmds.sty
INPUT /usr/local/texlive/2022/texmf-dist/tex/generic/etexcmds/etexcmds.sty
INPUT /usr/local/texlive/2022/texmf-dist/tex/generic/etexcmds/etexcmds.sty
INPUT /usr/local/texlive/2022/texmf-dist/tex/generic/etexcmds/etexcmds.sty
INPUT /usr/local/texlive/2022/texmf-dist/tex/generic/etexcmds/etexcmds.sty
INPUT /usr/local/texlive/2022/texmf-dist/tex/generic/etexcmds/etexcmds.sty
INPUT /usr/local/texlive/2022/texmf-dist/tex/generic/etexcmds/etexcmds.sty
INPUT /usr/local/texlive/2022/texmf-dist/tex/generic/etexcmds/etexcmds.sty
INPUT /usr/local/texlive/2022/texmf-dist/tex/generic/etexcmds/etexcmds.sty
INPUT /usr/local/texlive/2022/texmf-dist/tex/generic/infwarerr/infwarerr.sty
INPUT /usr/local/texlive/2022/texmf-dist/tex/generic/iftex/iftex.sty
INPUT /usr/local/texlive/2022/texmf-dist/tex/latex/hyperref/puenc.def
INPUT /usr/local/texlive/2022/texmf-dist/tex/latex/hyperref/puenc.def
INPUT /usr/local/texlive/2022/texmf-dist/tex/latex/hyperref/puenc.def
INPUT /usr/local/texlive/2022/texmf-dist/tex/latex/hyperref/puenc.def
INPUT /usr/local/texlive/2022/texmf-dist/tex/latex/url/url.sty
INPUT /usr/local/texlive/2022/texmf-dist/tex/latex/url/url.sty
INPUT /usr/local/texlive/2022/texmf-dist/tex/latex/url/url.sty
INPUT /usr/local/texlive/2022/texmf-dist/tex/latex/url/url.sty
INPUT /usr/local/texlive/2022/texmf-dist/tex/latex/url/url.sty
INPUT /usr/local/texlive/2022/texmf-dist/tex/latex/url/url.sty
INPUT /usr/local/texlive/2022/texmf-dist/tex/latex/url/url.sty
INPUT /usr/local/texlive/2022/texmf-dist/tex/latex/url/url.sty
INPUT /usr/local/texlive/2022/texmf-dist/tex/latex/url/url.sty
INPUT /usr/local/texlive/2022/texmf-dist/tex/latex/url/url.sty
INPUT /usr/local/texlive/2022/texmf-dist/tex/latex/url/url.sty
INPUT /usr/local/texlive/2022/texmf-dist/tex/generic/bitset/bitset.sty
INPUT /usr/local/texlive/2022/texmf-dist/tex/generic/bitset/bitset.sty
INPUT /usr/local/texlive/2022/texmf-dist/tex/generic/bitset/bitset.sty
INPUT /usr/local/texlive/2022/texmf-dist/tex/generic/bitset/bitset.sty
INPUT /usr/local/texlive/2022/texmf-dist/tex/generic/bitset/bitset.sty
INPUT /usr/local/texlive/2022/texmf-dist/tex/generic/bitset/bitset.sty
INPUT /usr/local/texlive/2022/texmf-dist/tex/generic/bitset/bitset.sty
INPUT /usr/local/texlive/2022/texmf-dist/tex/generic/bitset/bitset.sty
INPUT /usr/local/texlive/2022/texmf-dist/tex/generic/bitset/bitset.sty
INPUT /usr/local/texlive/2022/texmf-dist/tex/generic/bitset/bitset.sty
INPUT /usr/local/texlive/2022/texmf-dist/tex/generic/bitset/bitset.sty
INPUT /usr/local/texlive/2022/texmf-dist/tex/generic/infwarerr/infwarerr.sty
INPUT /usr/local/texlive/2022/texmf-dist/tex/generic/intcalc/intcalc.sty
INPUT /usr/local/texlive/2022/texmf-dist/tex/generic/bigintcalc/bigintcalc.sty
INPUT /usr/local/texlive/2022/texmf-dist/tex/generic/bigintcalc/bigintcalc.sty
INPUT /usr/local/texlive/2022/texmf-dist/tex/generic/bigintcalc/bigintcalc.sty
INPUT /usr/local/texlive/2022/texmf-dist/tex/generic/bigintcalc/bigintcalc.sty
INPUT /usr/local/texlive/2022/texmf-dist/tex/generic/bigintcalc/bigintcalc.sty
INPUT /usr/local/texlive/2022/texmf-dist/tex/generic/bigintcalc/bigintcalc.sty
INPUT /usr/local/texlive/2022/texmf-dist/tex/generic/bigintcalc/bigintcalc.sty
INPUT /usr/local/texlive/2022/texmf-dist/tex/generic/bigintcalc/bigintcalc.sty
INPUT /usr/local/texlive/2022/texmf-dist/tex/generic/bigintcalc/bigintcalc.sty
INPUT /usr/local/texlive/2022/texmf-dist/tex/generic/bigintcalc/bigintcalc.sty
INPUT /usr/local/texlive/2022/texmf-dist/tex/generic/bigintcalc/bigintcalc.sty
INPUT /usr/local/texlive/2022/texmf-dist/tex/generic/pdftexcmds/pdftexcmds.sty
INPUT /usr/local/texlive/2022/texmf-dist/tex/generic/atbegshi/atbegshi.sty
INPUT /usr/local/texlive/2022/texmf-dist/tex/generic/atbegshi/atbegshi.sty
INPUT /usr/local/texlive/2022/texmf-dist/tex/generic/atbegshi/atbegshi.sty
INPUT /usr/local/texlive/2022/texmf-dist/tex/latex/base/atbegshi-ltx.sty
INPUT /usr/local/texlive/2022/texmf-dist/tex/generic/atbegshi/atbegshi.sty
INPUT /usr/local/texlive/2022/texmf-dist/tex/generic/atbegshi/atbegshi.sty
INPUT /usr/local/texlive/2022/texmf-dist/tex/latex/base/atbegshi-ltx.sty
INPUT /usr/local/texlive/2022/texmf-dist/tex/generic/atbegshi/atbegshi.sty
INPUT /usr/local/texlive/2022/texmf-dist/tex/latex/base/atbegshi-ltx.sty
INPUT /usr/local/texlive/2022/texmf-dist/tex/latex/base/atbegshi-ltx.sty
INPUT /usr/local/texlive/2022/texmf-dist/tex/generic/atbegshi/atbegshi.sty
INPUT /usr/local/texlive/2022/texmf-dist/tex/generic/atbegshi/atbegshi.sty
INPUT /usr/local/texlive/2022/texmf-dist/tex/latex/base/atbegshi-ltx.sty
INPUT /usr/local/texlive/2022/texmf-dist/tex/latex/base/atbegshi-ltx.sty
INPUT /usr/local/texlive/2022/texmf-dist/tex/generic/atbegshi/atbegshi.sty
INPUT /usr/local/texlive/2022/texmf-dist/tex/latex/base/atbegshi-ltx.sty
INPUT /usr/local/texlive/2022/texmf-dist/tex/latex/hyperref/hpdftex.def
INPUT /usr/local/texlive/2022/texmf-dist/tex/latex/hyperref/hpdftex.def
INPUT /usr/local/texlive/2022/texmf-dist/tex/latex/hyperref/hpdftex.def
INPUT /usr/local/texlive/2022/texmf-dist/tex/latex/hyperref/hpdftex.def
INPUT /usr/local/texlive/2022/texmf-dist/tex/latex/atveryend/atveryend.sty
INPUT /usr/local/texlive/2022/texmf-dist/tex/latex/atveryend/atveryend.sty
INPUT /usr/local/texlive/2022/texmf-dist/tex/latex/atveryend/atveryend.sty
INPUT /usr/local/texlive/2022/texmf-dist/tex/latex/base/atveryend-ltx.sty
INPUT /usr/local/texlive/2022/texmf-dist/tex/latex/atveryend/atveryend.sty
INPUT /usr/local/texlive/2022/texmf-dist/tex/latex/atveryend/atveryend.sty
INPUT /usr/local/texlive/2022/texmf-dist/tex/latex/base/atveryend-ltx.sty
INPUT /usr/local/texlive/2022/texmf-dist/tex/latex/atveryend/atveryend.sty
INPUT /usr/local/texlive/2022/texmf-dist/tex/latex/base/atveryend-ltx.sty
INPUT /usr/local/texlive/2022/texmf-dist/tex/latex/base/atveryend-ltx.sty
INPUT /usr/local/texlive/2022/texmf-dist/tex/latex/atveryend/atveryend.sty
INPUT /usr/local/texlive/2022/texmf-dist/tex/latex/atveryend/atveryend.sty
INPUT /usr/local/texlive/2022/texmf-dist/tex/latex/base/atveryend-ltx.sty
INPUT /usr/local/texlive/2022/texmf-dist/tex/latex/base/atveryend-ltx.sty
INPUT /usr/local/texlive/2022/texmf-dist/tex/latex/atveryend/atveryend.sty
INPUT /usr/local/texlive/2022/texmf-dist/tex/latex/base/atveryend-ltx.sty
INPUT /usr/local/texlive/2022/texmf-dist/tex/latex/rerunfilecheck/rerunfilecheck.sty
INPUT /usr/local/texlive/2022/texmf-dist/tex/latex/rerunfilecheck/rerunfilecheck.sty
INPUT /usr/local/texlive/2022/texmf-dist/tex/latex/rerunfilecheck/rerunfilecheck.sty
INPUT /usr/local/texlive/2022/texmf-dist/tex/latex/rerunfilecheck/rerunfilecheck.sty
INPUT /usr/local/texlive/2022/texmf-dist/tex/latex/rerunfilecheck/rerunfilecheck.sty
INPUT /usr/local/texlive/2022/texmf-dist/tex/latex/rerunfilecheck/rerunfilecheck.sty
INPUT /usr/local/texlive/2022/texmf-dist/tex/latex/rerunfilecheck/rerunfilecheck.sty
INPUT /usr/local/texlive/2022/texmf-dist/tex/latex/rerunfilecheck/rerunfilecheck.sty
INPUT /usr/local/texlive/2022/texmf-dist/tex/latex/rerunfilecheck/rerunfilecheck.sty
INPUT /usr/local/texlive/2022/texmf-dist/tex/latex/rerunfilecheck/rerunfilecheck.sty
INPUT /usr/local/texlive/2022/texmf-dist/tex/latex/rerunfilecheck/rerunfilecheck.sty
INPUT /usr/local/texlive/2022/texmf-dist/tex/latex/kvoptions/kvoptions.sty
INPUT /usr/local/texlive/2022/texmf-dist/tex/generic/infwarerr/infwarerr.sty
INPUT /usr/local/texlive/2022/texmf-dist/tex/generic/pdftexcmds/pdftexcmds.sty
INPUT /usr/local/texlive/2022/texmf-dist/tex/latex/atveryend/atveryend.sty
INPUT /usr/local/texlive/2022/texmf-dist/tex/generic/uniquecounter/uniquecounter.sty
INPUT /usr/local/texlive/2022/texmf-dist/tex/generic/uniquecounter/uniquecounter.sty
INPUT /usr/local/texlive/2022/texmf-dist/tex/generic/uniquecounter/uniquecounter.sty
INPUT /usr/local/texlive/2022/texmf-dist/tex/generic/uniquecounter/uniquecounter.sty
INPUT /usr/local/texlive/2022/texmf-dist/tex/generic/uniquecounter/uniquecounter.sty
INPUT /usr/local/texlive/2022/texmf-dist/tex/generic/uniquecounter/uniquecounter.sty
INPUT /usr/local/texlive/2022/texmf-dist/tex/generic/uniquecounter/uniquecounter.sty
INPUT /usr/local/texlive/2022/texmf-dist/tex/generic/uniquecounter/uniquecounter.sty
INPUT /usr/local/texlive/2022/texmf-dist/tex/generic/uniquecounter/uniquecounter.sty
INPUT /usr/local/texlive/2022/texmf-dist/tex/generic/uniquecounter/uniquecounter.sty
INPUT /usr/local/texlive/2022/texmf-dist/tex/generic/uniquecounter/uniquecounter.sty
INPUT /usr/local/texlive/2022/texmf-dist/tex/generic/bigintcalc/bigintcalc.sty
INPUT /usr/local/texlive/2022/texmf-dist/tex/generic/infwarerr/infwarerr.sty
INPUT /usr/local/texlive/2022/texmf-dist/tex/latex/graphics/color.sty
INPUT /usr/local/texlive/2022/texmf-dist/tex/latex/graphics/color.sty
INPUT /usr/local/texlive/2022/texmf-dist/tex/latex/graphics/color.sty
INPUT /usr/local/texlive/2022/texmf-dist/tex/latex/graphics/color.sty
INPUT /usr/local/texlive/2022/texmf-dist/tex/latex/graphics/color.sty
INPUT /usr/local/texlive/2022/texmf-dist/tex/latex/graphics/color.sty
INPUT /usr/local/texlive/2022/texmf-dist/tex/latex/graphics/color.sty
INPUT /usr/local/texlive/2022/texmf-dist/tex/latex/graphics/color.sty
INPUT /usr/local/texlive/2022/texmf-dist/tex/latex/graphics/color.sty
INPUT /usr/local/texlive/2022/texmf-dist/tex/latex/graphics/color.sty
INPUT /usr/local/texlive/2022/texmf-dist/tex/latex/graphics/color.sty
INPUT /usr/local/texlive/2022/texmf-dist/tex/latex/graphics-cfg/color.cfg
INPUT /usr/local/texlive/2022/texmf-dist/tex/latex/graphics-cfg/color.cfg
INPUT /usr/local/texlive/2022/texmf-dist/tex/latex/graphics-cfg/color.cfg
INPUT /usr/local/texlive/2022/texmf-dist/tex/latex/graphics-cfg/color.cfg
INPUT /usr/local/texlive/2022/texmf-dist/tex/latex/graphics/graphicx.sty
INPUT /usr/local/texlive/2022/texmf-dist/tex/latex/geometry/geometry.sty
INPUT /usr/local/texlive/2022/texmf-dist/tex/latex/geometry/geometry.sty
INPUT /usr/local/texlive/2022/texmf-dist/tex/latex/geometry/geometry.sty
INPUT /usr/local/texlive/2022/texmf-dist/tex/latex/geometry/geometry.sty
INPUT /usr/local/texlive/2022/texmf-dist/tex/latex/geometry/geometry.sty
INPUT /usr/local/texlive/2022/texmf-dist/tex/latex/geometry/geometry.sty
INPUT /usr/local/texlive/2022/texmf-dist/tex/latex/geometry/geometry.sty
INPUT /usr/local/texlive/2022/texmf-dist/tex/latex/geometry/geometry.sty
INPUT /usr/local/texlive/2022/texmf-dist/tex/latex/geometry/geometry.sty
INPUT /usr/local/texlive/2022/texmf-dist/tex/latex/geometry/geometry.sty
INPUT /usr/local/texlive/2022/texmf-dist/tex/latex/geometry/geometry.sty
INPUT /usr/local/texlive/2022/texmf-dist/tex/latex/graphics/keyval.sty
INPUT /usr/local/texlive/2022/texmf-dist/tex/generic/iftex/ifvtex.sty
INPUT /usr/local/texlive/2022/texmf-dist/tex/generic/iftex/ifvtex.sty
INPUT /usr/local/texlive/2022/texmf-dist/tex/generic/iftex/ifvtex.sty
INPUT /usr/local/texlive/2022/texmf-dist/tex/generic/iftex/ifvtex.sty
INPUT /usr/local/texlive/2022/texmf-dist/tex/generic/iftex/ifvtex.sty
INPUT /usr/local/texlive/2022/texmf-dist/tex/generic/iftex/ifvtex.sty
INPUT /usr/local/texlive/2022/texmf-dist/tex/generic/iftex/ifvtex.sty
INPUT /usr/local/texlive/2022/texmf-dist/tex/generic/iftex/ifvtex.sty
INPUT /usr/local/texlive/2022/texmf-dist/tex/generic/iftex/ifvtex.sty
INPUT /usr/local/texlive/2022/texmf-dist/tex/generic/iftex/ifvtex.sty
INPUT /usr/local/texlive/2022/texmf-dist/tex/generic/iftex/ifvtex.sty
INPUT /usr/local/texlive/2022/texmf-dist/tex/generic/iftex/iftex.sty
INPUT /usr/local/texlive/2022/texmf-dist/tex/latex/lipsum/lipsum.sty
INPUT /usr/local/texlive/2022/texmf-dist/tex/latex/lipsum/lipsum.sty
INPUT /usr/local/texlive/2022/texmf-dist/tex/latex/lipsum/lipsum.sty
INPUT /usr/local/texlive/2022/texmf-dist/tex/latex/lipsum/lipsum.sty
INPUT /usr/local/texlive/2022/texmf-dist/tex/latex/lipsum/lipsum.sty
INPUT /usr/local/texlive/2022/texmf-dist/tex/latex/lipsum/lipsum.sty
INPUT /usr/local/texlive/2022/texmf-dist/tex/latex/lipsum/lipsum.sty
INPUT /usr/local/texlive/2022/texmf-dist/tex/latex/lipsum/lipsum.sty
INPUT /usr/local/texlive/2022/texmf-dist/tex/latex/lipsum/lipsum.sty
INPUT /usr/local/texlive/2022/texmf-dist/tex/latex/lipsum/lipsum.sty
INPUT /usr/local/texlive/2022/texmf-dist/tex/latex/lipsum/lipsum.sty
INPUT /usr/local/texlive/2022/texmf-dist/tex/latex/l3packages/l3keys2e/l3keys2e.sty
INPUT /usr/local/texlive/2022/texmf-dist/tex/latex/l3packages/l3keys2e/l3keys2e.sty
INPUT /usr/local/texlive/2022/texmf-dist/tex/latex/l3packages/l3keys2e/l3keys2e.sty
INPUT /usr/local/texlive/2022/texmf-dist/tex/latex/l3packages/l3keys2e/l3keys2e.sty
INPUT /usr/local/texlive/2022/texmf-dist/tex/latex/l3packages/l3keys2e/l3keys2e.sty
INPUT /usr/local/texlive/2022/texmf-dist/tex/latex/l3packages/l3keys2e/l3keys2e.sty
INPUT /usr/local/texlive/2022/texmf-dist/tex/latex/l3packages/l3keys2e/l3keys2e.sty
INPUT /usr/local/texlive/2022/texmf-dist/tex/latex/l3packages/l3keys2e/l3keys2e.sty
INPUT /usr/local/texlive/2022/texmf-dist/tex/latex/l3packages/l3keys2e/l3keys2e.sty
INPUT /usr/local/texlive/2022/texmf-dist/tex/latex/l3packages/l3keys2e/l3keys2e.sty
INPUT /usr/local/texlive/2022/texmf-dist/tex/latex/l3packages/l3keys2e/l3keys2e.sty
INPUT /usr/local/texlive/2022/texmf-dist/tex/latex/l3kernel/expl3.sty
INPUT /usr/local/texlive/2022/texmf-dist/tex/latex/l3kernel/expl3.sty
INPUT /usr/local/texlive/2022/texmf-dist/tex/latex/l3kernel/expl3.sty
INPUT /usr/local/texlive/2022/texmf-dist/tex/latex/l3kernel/expl3.sty
INPUT /usr/local/texlive/2022/texmf-dist/tex/latex/l3kernel/expl3.sty
INPUT /usr/local/texlive/2022/texmf-dist/tex/latex/l3kernel/expl3.sty
INPUT /usr/local/texlive/2022/texmf-dist/tex/latex/l3kernel/expl3.sty
INPUT /usr/local/texlive/2022/texmf-dist/tex/latex/l3kernel/expl3.sty
INPUT /usr/local/texlive/2022/texmf-dist/tex/latex/l3kernel/expl3.sty
INPUT /usr/local/texlive/2022/texmf-dist/tex/latex/l3kernel/expl3.sty
INPUT /usr/local/texlive/2022/texmf-dist/tex/latex/l3kernel/expl3.sty
INPUT /usr/local/texlive/2022/texmf-dist/tex/latex/l3backend/l3backend-pdftex.def
INPUT /usr/local/texlive/2022/texmf-dist/tex/latex/l3backend/l3backend-pdftex.def
INPUT /usr/local/texlive/2022/texmf-dist/tex/latex/l3backend/l3backend-pdftex.def
INPUT /usr/local/texlive/2022/texmf-dist/tex/latex/l3backend/l3backend-pdftex.def
INPUT /usr/local/texlive/2022/texmf-dist/tex/latex/l3backend/l3backend-pdftex.def
INPUT /usr/local/texlive/2022/texmf-dist/tex/latex/l3backend/l3backend-pdftex.def
INPUT /usr/local/texlive/2022/texmf-dist/tex/latex/l3backend/l3backend-pdftex.def
INPUT /usr/local/texlive/2022/texmf-dist/tex/latex/l3backend/l3backend-pdftex.def
INPUT /usr/local/texlive/2022/texmf-dist/tex/latex/l3backend/l3backend-pdftex.def
INPUT /usr/local/texlive/2022/texmf-dist/tex/latex/l3backend/l3backend-pdftex.def
INPUT /usr/local/texlive/2022/texmf-dist/tex/latex/l3backend/l3backend-pdftex.def
INPUT /usr/local/texlive/2022/texmf-dist/tex/latex/lipsum/lipsum.ltd.tex
INPUT /usr/local/texlive/2022/texmf-dist/tex/latex/lipsum/lipsum.ltd.tex
INPUT ./report.aux
INPUT report.aux
INPUT report.aux
OUTPUT report.aux
INPUT /usr/local/texlive/2022/texmf-dist/tex/context/base/mkii/supp-pdf.mkii
INPUT /usr/local/texlive/2022/texmf-dist/tex/context/base/mkii/supp-pdf.mkii
INPUT /usr/local/texlive/2022/texmf-dist/tex/context/base/mkii/supp-pdf.mkii
INPUT /usr/local/texlive/2022/texmf-dist/tex/context/base/mkii/supp-pdf.mkii
INPUT /usr/local/texlive/2022/texmf-dist/tex/latex/epstopdf-pkg/epstopdf-base.sty
INPUT /usr/local/texlive/2022/texmf-dist/tex/latex/epstopdf-pkg/epstopdf-base.sty
INPUT /usr/local/texlive/2022/texmf-dist/tex/latex/epstopdf-pkg/epstopdf-base.sty
INPUT /usr/local/texlive/2022/texmf-dist/tex/latex/epstopdf-pkg/epstopdf-base.sty
INPUT /usr/local/texlive/2022/texmf-dist/tex/latex/epstopdf-pkg/epstopdf-base.sty
INPUT /usr/local/texlive/2022/texmf-dist/tex/latex/epstopdf-pkg/epstopdf-base.sty
INPUT /usr/local/texlive/2022/texmf-dist/tex/latex/epstopdf-pkg/epstopdf-base.sty
INPUT /usr/local/texlive/2022/texmf-dist/tex/latex/epstopdf-pkg/epstopdf-base.sty
INPUT /usr/local/texlive/2022/texmf-dist/tex/latex/epstopdf-pkg/epstopdf-base.sty
INPUT /usr/local/texlive/2022/texmf-dist/tex/latex/epstopdf-pkg/epstopdf-base.sty
INPUT /usr/local/texlive/2022/texmf-dist/tex/latex/epstopdf-pkg/epstopdf-base.sty
INPUT /usr/local/texlive/2022/texmf-dist/tex/latex/latexconfig/epstopdf-sys.cfg
INPUT /usr/local/texlive/2022/texmf-dist/tex/latex/latexconfig/epstopdf-sys.cfg
INPUT /usr/local/texlive/2022/texmf-dist/tex/latex/latexconfig/epstopdf-sys.cfg
INPUT /usr/local/texlive/2022/texmf-dist/tex/latex/latexconfig/epstopdf-sys.cfg
INPUT /usr/local/texlive/2022/texmf-dist/tex/latex/hyperref/nameref.sty
INPUT /usr/local/texlive/2022/texmf-dist/tex/latex/hyperref/nameref.sty
INPUT /usr/local/texlive/2022/texmf-dist/tex/latex/hyperref/nameref.sty
INPUT /usr/local/texlive/2022/texmf-dist/tex/latex/hyperref/nameref.sty
INPUT /usr/local/texlive/2022/texmf-dist/tex/latex/hyperref/nameref.sty
INPUT /usr/local/texlive/2022/texmf-dist/tex/latex/hyperref/nameref.sty
INPUT /usr/local/texlive/2022/texmf-dist/tex/latex/hyperref/nameref.sty
INPUT /usr/local/texlive/2022/texmf-dist/tex/latex/hyperref/nameref.sty
INPUT /usr/local/texlive/2022/texmf-dist/tex/latex/hyperref/nameref.sty
INPUT /usr/local/texlive/2022/texmf-dist/tex/latex/hyperref/nameref.sty
INPUT /usr/local/texlive/2022/texmf-dist/tex/latex/hyperref/nameref.sty
INPUT /usr/local/texlive/2022/texmf-dist/tex/latex/refcount/refcount.sty
INPUT /usr/local/texlive/2022/texmf-dist/tex/latex/refcount/refcount.sty
INPUT /usr/local/texlive/2022/texmf-dist/tex/latex/refcount/refcount.sty
INPUT /usr/local/texlive/2022/texmf-dist/tex/latex/refcount/refcount.sty
INPUT /usr/local/texlive/2022/texmf-dist/tex/latex/refcount/refcount.sty
INPUT /usr/local/texlive/2022/texmf-dist/tex/latex/refcount/refcount.sty
INPUT /usr/local/texlive/2022/texmf-dist/tex/latex/refcount/refcount.sty
INPUT /usr/local/texlive/2022/texmf-dist/tex/latex/refcount/refcount.sty
INPUT /usr/local/texlive/2022/texmf-dist/tex/latex/refcount/refcount.sty
INPUT /usr/local/texlive/2022/texmf-dist/tex/latex/refcount/refcount.sty
INPUT /usr/local/texlive/2022/texmf-dist/tex/latex/refcount/refcount.sty
INPUT /usr/local/texlive/2022/texmf-dist/tex/generic/ltxcmds/ltxcmds.sty
INPUT /usr/local/texlive/2022/texmf-dist/tex/generic/infwarerr/infwarerr.sty
INPUT /usr/local/texlive/2022/texmf-dist/tex/generic/gettitlestring/gettitlestring.sty
INPUT /usr/local/texlive/2022/texmf-dist/tex/generic/gettitlestring/gettitlestring.sty
INPUT /usr/local/texlive/2022/texmf-dist/tex/generic/gettitlestring/gettitlestring.sty
INPUT /usr/local/texlive/2022/texmf-dist/tex/generic/gettitlestring/gettitlestring.sty
INPUT /usr/local/texlive/2022/texmf-dist/tex/generic/gettitlestring/gettitlestring.sty
INPUT /usr/local/texlive/2022/texmf-dist/tex/generic/gettitlestring/gettitlestring.sty
INPUT /usr/local/texlive/2022/texmf-dist/tex/generic/gettitlestring/gettitlestring.sty
INPUT /usr/local/texlive/2022/texmf-dist/tex/generic/gettitlestring/gettitlestring.sty
INPUT /usr/local/texlive/2022/texmf-dist/tex/generic/gettitlestring/gettitlestring.sty
INPUT /usr/local/texlive/2022/texmf-dist/tex/generic/gettitlestring/gettitlestring.sty
INPUT /usr/local/texlive/2022/texmf-dist/tex/generic/gettitlestring/gettitlestring.sty
INPUT /usr/local/texlive/2022/texmf-dist/tex/latex/kvoptions/kvoptions.sty
INPUT /usr/local/texlive/2022/texmf-dist/tex/generic/ltxcmds/ltxcmds.sty
INPUT ./report.out
INPUT report.out
INPUT ./report.out
INPUT report.out
INPUT ./report.out
INPUT report.out
INPUT ./report.out
INPUT report.out
OUTPUT report.pdf
INPUT ./report.out
INPUT ./report.out
OUTPUT report.out
INPUT /usr/local/texlive/2022/texmf-dist/fonts/tfm/public/cm/cmr17.tfm
INPUT /usr/local/texlive/2022/texmf-dist/fonts/tfm/public/cm/cmr17.tfm
INPUT /usr/local/texlive/2022/texmf-dist/fonts/tfm/public/cm/cmbx12.tfm
INPUT /usr/local/texlive/2022/texmf-dist/fonts/tfm/public/cm/cmr12.tfm
INPUT /usr/local/texlive/2022/texmf-dist/fonts/tfm/public/cm/cmr12.tfm
INPUT /usr/local/texlive/2022/texmf-dist/fonts/tfm/public/cm/cmr8.tfm
INPUT /usr/local/texlive/2022/texmf-dist/fonts/tfm/public/cm/cmr6.tfm
INPUT /usr/local/texlive/2022/texmf-dist/fonts/tfm/public/cm/cmmi12.tfm
INPUT /usr/local/texlive/2022/texmf-dist/fonts/tfm/public/cm/cmmi8.tfm
INPUT /usr/local/texlive/2022/texmf-dist/fonts/tfm/public/cm/cmmi6.tfm
INPUT /usr/local/texlive/2022/texmf-dist/fonts/tfm/public/cm/cmsy10.tfm
INPUT /usr/local/texlive/2022/texmf-dist/fonts/tfm/public/cm/cmsy8.tfm
INPUT /usr/local/texlive/2022/texmf-dist/fonts/tfm/public/cm/cmsy6.tfm
INPUT /usr/local/texlive/2022/texmf-dist/fonts/tfm/public/cm/cmex10.tfm
INPUT /usr/local/texlive/2022/texmf-dist/fonts/tfm/public/amsfonts/cmextra/cmex8.tfm
INPUT /usr/local/texlive/2022/texmf-dist/fonts/tfm/public/amsfonts/cmextra/cmex7.tfm
INPUT /usr/local/texlive/2022/texmf-dist/tex/latex/amsfonts/umsa.fd
INPUT /usr/local/texlive/2022/texmf-dist/tex/latex/amsfonts/umsa.fd
INPUT /usr/local/texlive/2022/texmf-dist/tex/latex/amsfonts/umsa.fd
INPUT /usr/local/texlive/2022/texmf-dist/tex/latex/amsfonts/umsa.fd
INPUT /usr/local/texlive/2022/texmf-dist/fonts/tfm/public/amsfonts/symbols/msam10.tfm
INPUT /usr/local/texlive/2022/texmf-dist/fonts/tfm/public/amsfonts/symbols/msam10.tfm
INPUT /usr/local/texlive/2022/texmf-dist/fonts/tfm/public/amsfonts/symbols/msam7.tfm
INPUT /usr/local/texlive/2022/texmf-dist/tex/latex/amsfonts/umsb.fd
INPUT /usr/local/texlive/2022/texmf-dist/tex/latex/amsfonts/umsb.fd
INPUT /usr/local/texlive/2022/texmf-dist/tex/latex/amsfonts/umsb.fd
INPUT /usr/local/texlive/2022/texmf-dist/tex/latex/amsfonts/umsb.fd
INPUT /usr/local/texlive/2022/texmf-dist/fonts/tfm/public/amsfonts/symbols/msbm10.tfm
INPUT /usr/local/texlive/2022/texmf-dist/fonts/tfm/public/amsfonts/symbols/msbm10.tfm
INPUT /usr/local/texlive/2022/texmf-dist/fonts/tfm/public/amsfonts/symbols/msbm7.tfm
INPUT /usr/local/texlive/2022/texmf-var/fonts/map/pdftex/updmap/pdftex.map
INPUT /usr/local/texlive/2022/texmf-dist/fonts/tfm/public/cm/cmbx12.tfm
INPUT /usr/local/texlive/2022/texmf-dist/fonts/tfm/jknappen/ec/tcrm1095.tfm
INPUT /usr/local/texlive/2022/texmf-dist/fonts/tfm/public/cm/cmmi10.tfm
INPUT /usr/local/texlive/2022/texmf-dist/fonts/tfm/public/cm/cmsy10.tfm
INPUT /usr/local/texlive/2022/texmf-dist/fonts/tfm/public/cm/cmex10.tfm
INPUT /usr/local/texlive/2022/texmf-dist/fonts/tfm/public/amsfonts/symbols/msam10.tfm
INPUT /usr/local/texlive/2022/texmf-dist/fonts/tfm/public/amsfonts/symbols/msbm10.tfm
INPUT /usr/local/texlive/2022/texmf-dist/fonts/tfm/public/cm/cmbx10.tfm
INPUT /usr/local/texlive/2022/texmf-dist/fonts/tfm/public/cm/cmtt10.tfm
INPUT ./img/data_sample.jpg
INPUT ./img/data_sample.jpg
INPUT ./img/data_sample.jpg
INPUT ./img/data_sample.jpg
INPUT ./img/data_sample.jpg
INPUT ./img/distribution_of_load_percent.png
INPUT ./img/distribution_of_load_percent.png
INPUT ./img/distribution_of_load_percent.png
INPUT ./img/distribution_of_load_percent.png
INPUT ./img/distribution_of_load_percent.png
INPUT ./img/exam_time_by_unit.png
INPUT ./img/exam_time_by_unit.png
INPUT ./img/exam_time_by_unit.png
INPUT ./img/exam_time_by_unit.png
INPUT ./img/exam_time_by_unit.png
INPUT /usr/local/texlive/2022/texmf-dist/fonts/tfm/public/cm/cmbx12.tfm
INPUT ./img/study_time_percent.png
INPUT ./img/study_time_percent.png
INPUT ./img/study_time_percent.png
INPUT ./img/study_time_percent.png
INPUT ./img/study_time_percent.png
INPUT /usr/local/texlive/2022/texmf-dist/fonts/tfm/public/cm/cmti10.tfm
INPUT /usr/local/texlive/2022/texmf-dist/fonts/tfm/public/cm/cmmi12.tfm
INPUT /usr/local/texlive/2022/texmf-dist/fonts/tfm/public/cm/cmsy10.tfm
INPUT /usr/local/texlive/2022/texmf-dist/fonts/tfm/public/cm/cmex10.tfm
INPUT /usr/local/texlive/2022/texmf-dist/fonts/tfm/public/amsfonts/cmextra/cmex7.tfm
INPUT /usr/local/texlive/2022/texmf-dist/fonts/tfm/public/amsfonts/symbols/msam10.tfm
INPUT /usr/local/texlive/2022/texmf-dist/fonts/tfm/public/amsfonts/symbols/msam10.tfm
INPUT /usr/local/texlive/2022/texmf-dist/fonts/tfm/public/amsfonts/symbols/msam7.tfm
INPUT /usr/local/texlive/2022/texmf-dist/fonts/tfm/public/amsfonts/symbols/msbm10.tfm
INPUT /usr/local/texlive/2022/texmf-dist/fonts/tfm/public/amsfonts/symbols/msbm10.tfm
INPUT /usr/local/texlive/2022/texmf-dist/fonts/tfm/public/amsfonts/symbols/msbm7.tfm
INPUT ./img/daily_p_over_dev_by_semester.png
INPUT ./img/daily_p_over_dev_by_semester.png
INPUT ./img/daily_p_over_dev_by_semester.png
INPUT ./img/daily_p_over_dev_by_semester.png
INPUT ./img/daily_p_over_dev_by_semester.png
INPUT ./report.bbl
INPUT report.bbl
INPUT ./report.bbl
INPUT report.bbl
INPUT report.aux
INPUT ./report.out
INPUT ./report.out
INPUT /usr/local/texlive/2022/texmf-dist/fonts/enc/dvips/cm-super/cm-super-ts1.enc
INPUT /usr/local/texlive/2022/texmf-dist/fonts/type1/public/amsfonts/cm/cmbx10.pfb
INPUT /usr/local/texlive/2022/texmf-dist/fonts/type1/public/amsfonts/cm/cmbx12.pfb
INPUT /usr/local/texlive/2022/texmf-dist/fonts/type1/public/amsfonts/cm/cmex10.pfb
INPUT /usr/local/texlive/2022/texmf-dist/fonts/type1/public/amsfonts/cm/cmmi10.pfb
INPUT /usr/local/texlive/2022/texmf-dist/fonts/type1/public/amsfonts/cm/cmmi12.pfb
INPUT /usr/local/texlive/2022/texmf-dist/fonts/type1/public/amsfonts/cm/cmmi8.pfb
INPUT /usr/local/texlive/2022/texmf-dist/fonts/type1/public/amsfonts/cm/cmr10.pfb
INPUT /usr/local/texlive/2022/texmf-dist/fonts/type1/public/amsfonts/cm/cmr12.pfb
INPUT /usr/local/texlive/2022/texmf-dist/fonts/type1/public/amsfonts/cm/cmr17.pfb
INPUT /usr/local/texlive/2022/texmf-dist/fonts/type1/public/amsfonts/cm/cmsy10.pfb
INPUT /usr/local/texlive/2022/texmf-dist/fonts/type1/public/amsfonts/cm/cmti10.pfb
INPUT /usr/local/texlive/2022/texmf-dist/fonts/type1/public/amsfonts/cm/cmtt10.pfb
INPUT /usr/local/texlive/2022/texmf-dist/fonts/type1/public/cm-super/sfrm1095.pfb
